module gitlab.com/hound672/otus-microservices/06

go 1.18

require (
	github.com/go-playground/validator/v10 v10.11.0
	github.com/gobuffalo/packr/v2 v2.8.3
	github.com/google/uuid v1.3.0
	github.com/google/wire v0.5.0
	github.com/jackc/pgx/v4 v4.16.1
	github.com/labstack/echo-contrib v0.13.0
	github.com/labstack/echo/v4 v4.7.2
	github.com/rubenv/sql-migrate v1.1.2
	github.com/sirupsen/logrus v1.8.1
	github.com/spf13/cobra v1.5.0
	github.com/spf13/viper v1.12.0
	github.com/stretchr/testify v1.7.1
)

require (
	github.com/beorn7/perks v1.0.1 // indirect
	github.com/cespare/xxhash/v2 v2.1.2 // indirect
	github.com/davecgh/go-spew v1.1.1 // indirect
	github.com/fsnotify/fsnotify v1.5.4 // indirect
	github.com/go-gorp/gorp/v3 v3.0.2 // indirect
	github.com/go-playground/locales v0.14.0 // indirect
	github.com/go-playground/universal-translator v0.18.0 // indirect
	github.com/gobuffalo/logger v1.0.6 // indirect
	github.com/gobuffalo/packd v1.0.1 // indirect
	github.com/golang-jwt/jwt v3.2.2+incompatible // indirect
	github.com/golang/protobuf v1.5.2 // indirect
	github.com/hashicorp/hcl v1.0.0 // indirect
	github.com/inconshreveable/mousetrap v1.0.0 // indirect
	github.com/jackc/chunkreader/v2 v2.0.1 // indirect
	github.com/jackc/pgconn v1.12.1 // indirect
	github.com/jackc/pgio v1.0.0 // indirect
	github.com/jackc/pgpassfile v1.0.0 // indirect
	github.com/jackc/pgproto3/v2 v2.3.0 // indirect
	github.com/jackc/pgservicefile v0.0.0-20200714003250-2b9c44734f2b // indirect
	github.com/jackc/pgtype v1.11.0 // indirect
	github.com/jackc/puddle v1.2.1 // indirect
	github.com/karrick/godirwalk v1.16.1 // indirect
	github.com/labstack/gommon v0.3.1 // indirect
	github.com/leodido/go-urn v1.2.1 // indirect
	github.com/magiconair/properties v1.8.6 // indirect
	github.com/markbates/errx v1.1.0 // indirect
	github.com/markbates/oncer v1.0.0 // indirect
	github.com/markbates/safe v1.0.1 // indirect
	github.com/mattn/go-colorable v0.1.12 // indirect
	github.com/mattn/go-isatty v0.0.14 // indirect
	github.com/matttproud/golang_protobuf_extensions v1.0.1 // indirect
	github.com/mitchellh/mapstructure v1.5.0 // indirect
	github.com/pelletier/go-toml v1.9.5 // indirect
	github.com/pelletier/go-toml/v2 v2.0.1 // indirect
	github.com/pmezard/go-difflib v1.0.0 // indirect
	github.com/prometheus/client_golang v1.12.2 // indirect
	github.com/prometheus/client_model v0.2.0 // indirect
	github.com/prometheus/common v0.37.0 // indirect
	github.com/prometheus/procfs v0.8.0 // indirect
	github.com/spf13/afero v1.8.2 // indirect
	github.com/spf13/cast v1.5.0 // indirect
	github.com/spf13/jwalterweatherman v1.1.0 // indirect
	github.com/spf13/pflag v1.0.5 // indirect
	github.com/stretchr/objx v0.2.0 // indirect
	github.com/subosito/gotenv v1.3.0 // indirect
	github.com/valyala/bytebufferpool v1.0.0 // indirect
	github.com/valyala/fasttemplate v1.2.1 // indirect
	golang.org/x/crypto v0.0.0-20220722155217-630584e8d5aa // indirect
	golang.org/x/net v0.0.0-20220728030405-41545e8bf201 // indirect
	golang.org/x/sys v0.0.0-20220728004956-3c1f35247d10 // indirect
	golang.org/x/term v0.0.0-20210927222741-03fcf44c2211 // indirect
	golang.org/x/text v0.3.7 // indirect
	golang.org/x/time v0.0.0-20220722155302-e5dcc9cfc0b9 // indirect
	google.golang.org/protobuf v1.28.0 // indirect
	gopkg.in/ini.v1 v1.66.4 // indirect
	gopkg.in/yaml.v2 v2.4.0 // indirect
	gopkg.in/yaml.v3 v3.0.0 // indirect
)
