{
	"info": {
		"_postman_id": "eb958e5c-fcdc-4912-a43a-a23514996787",
		"name": "Otus CRUD",
		"schema": "https://schema.getpostman.com/json/collection/v2.1.0/collection.json",
		"_exporter_id": "21973501"
	},
	"item": [
		{
			"name": "Create",
			"request": {
				"method": "POST",
				"header": [
					{
						"key": "Content-Type",
						"value": "application/json",
						"type": "text"
					}
				],
				"body": {
					"mode": "raw",
					"raw": "{\n    \"username\": \"test_username\"\n}"
				},
				"url": {
					"raw": "{{baseUrl}}/user",
					"host": [
						"{{baseUrl}}"
					],
					"path": [
						"user"
					]
				}
			},
			"response": []
		},
		{
			"name": "Read all",
			"event": [
				{
					"listen": "test",
					"script": {
						"exec": [
							"var responseJSON = JSON.parse(responseBody)",
							"pm.collectionVariables.set(\"userId\", responseJSON[0][\"id\"])",
							"",
							""
						],
						"type": "text/javascript"
					}
				}
			],
			"request": {
				"method": "GET",
				"header": [],
				"url": {
					"raw": "{{baseUrl}}/user",
					"host": [
						"{{baseUrl}}"
					],
					"path": [
						"user"
					]
				}
			},
			"response": []
		},
		{
			"name": "Change",
			"request": {
				"method": "PUT",
				"header": [
					{
						"key": "Content-Type",
						"value": "application/json",
						"type": "text"
					}
				],
				"body": {
					"mode": "raw",
					"raw": "{\n    \"username\": \"new_user_name\"\n}"
				},
				"url": {
					"raw": "{{baseUrl}}/user/{{userId}}",
					"host": [
						"{{baseUrl}}"
					],
					"path": [
						"user",
						"{{userId}}"
					]
				}
			},
			"response": []
		},
		{
			"name": "Delete",
			"request": {
				"method": "DELETE",
				"header": [],
				"url": {
					"raw": "{{baseUrl}}/user/{{userId}}",
					"host": [
						"{{baseUrl}}"
					],
					"path": [
						"user",
						"{{userId}}"
					]
				}
			},
			"response": []
		}
	],
	"event": [
		{
			"listen": "prerequest",
			"script": {
				"type": "text/javascript",
				"exec": [
					""
				]
			}
		},
		{
			"listen": "test",
			"script": {
				"type": "text/javascript",
				"exec": [
					""
				]
			}
		}
	],
	"variable": [
		{
			"key": "baseUrl",
			"value": "http://arch.homework"
		},
		{
			"key": "userId",
			"value": ""
		}
	]
}
